digraph "common.h"
{
  edge [fontname="Helvetica",fontsize="10",labelfontname="Helvetica",labelfontsize="10"];
  node [fontname="Helvetica",fontsize="10",shape=record];
  Node8 [label="common.h",height=0.2,width=0.4,color="black", fillcolor="grey75", style="filled", fontcolor="black"];
  Node8 -> Node9 [dir="back",color="midnightblue",fontsize="10",style="solid",fontname="Helvetica"];
  Node9 [label="client/admin.h",height=0.2,width=0.4,color="black", fillcolor="white", style="filled",URL="$admin_8h.html"];
  Node9 -> Node10 [dir="back",color="midnightblue",fontsize="10",style="solid",fontname="Helvetica"];
  Node10 [label="client/admin.c",height=0.2,width=0.4,color="black", fillcolor="white", style="filled",URL="$admin_8c.html"];
  Node9 -> Node11 [dir="back",color="midnightblue",fontsize="10",style="solid",fontname="Helvetica"];
  Node11 [label="client/mainClient.c",height=0.2,width=0.4,color="black", fillcolor="white", style="filled",URL="$mainClient_8c.html"];
  Node8 -> Node12 [dir="back",color="midnightblue",fontsize="10",style="solid",fontname="Helvetica"];
  Node12 [label="client/listSelect.h",height=0.2,width=0.4,color="black", fillcolor="white", style="filled",URL="$listSelect_8h.html"];
  Node12 -> Node9 [dir="back",color="midnightblue",fontsize="10",style="solid",fontname="Helvetica"];
  Node12 -> Node13 [dir="back",color="midnightblue",fontsize="10",style="solid",fontname="Helvetica"];
  Node13 [label="client/annuaire.h",height=0.2,width=0.4,color="black", fillcolor="white", style="filled",URL="$annuaire_8h.html"];
  Node13 -> Node14 [dir="back",color="midnightblue",fontsize="10",style="solid",fontname="Helvetica"];
  Node14 [label="client/annuaire.c",height=0.2,width=0.4,color="black", fillcolor="white", style="filled",URL="$annuaire_8c.html"];
  Node13 -> Node11 [dir="back",color="midnightblue",fontsize="10",style="solid",fontname="Helvetica"];
  Node12 -> Node15 [dir="back",color="midnightblue",fontsize="10",style="solid",fontname="Helvetica"];
  Node15 [label="client/listSelect.c",height=0.2,width=0.4,color="black", fillcolor="white", style="filled",URL="$listSelect_8c.html"];
  Node8 -> Node16 [dir="back",color="midnightblue",fontsize="10",style="solid",fontname="Helvetica"];
  Node16 [label="client/state.h",height=0.2,width=0.4,color="black", fillcolor="white", style="filled",URL="$state_8h.html"];
  Node16 -> Node12 [dir="back",color="midnightblue",fontsize="10",style="solid",fontname="Helvetica"];
  Node16 -> Node10 [dir="back",color="midnightblue",fontsize="10",style="solid",fontname="Helvetica"];
  Node16 -> Node13 [dir="back",color="midnightblue",fontsize="10",style="solid",fontname="Helvetica"];
  Node16 -> Node17 [dir="back",color="midnightblue",fontsize="10",style="solid",fontname="Helvetica"];
  Node17 [label="client/client.c",height=0.2,width=0.4,color="black", fillcolor="white", style="filled",URL="$client_8c.html"];
  Node16 -> Node18 [dir="back",color="midnightblue",fontsize="10",style="solid",fontname="Helvetica"];
  Node18 [label="client/connexion.h",height=0.2,width=0.4,color="black", fillcolor="white", style="filled",URL="$connexion_8h.html"];
  Node18 -> Node19 [dir="back",color="midnightblue",fontsize="10",style="solid",fontname="Helvetica"];
  Node19 [label="client/connexion.c",height=0.2,width=0.4,color="black", fillcolor="white", style="filled",URL="$connexion_8c.html"];
  Node18 -> Node11 [dir="back",color="midnightblue",fontsize="10",style="solid",fontname="Helvetica"];
  Node16 -> Node20 [dir="back",color="midnightblue",fontsize="10",style="solid",fontname="Helvetica"];
  Node20 [label="client/contact.h",height=0.2,width=0.4,color="black", fillcolor="white", style="filled",URL="$contact_8h.html"];
  Node20 -> Node21 [dir="back",color="midnightblue",fontsize="10",style="solid",fontname="Helvetica"];
  Node21 [label="client/contact.c",height=0.2,width=0.4,color="black", fillcolor="white", style="filled",URL="$contact_8c.html"];
  Node20 -> Node11 [dir="back",color="midnightblue",fontsize="10",style="solid",fontname="Helvetica"];
  Node16 -> Node11 [dir="back",color="midnightblue",fontsize="10",style="solid",fontname="Helvetica"];
  Node16 -> Node22 [dir="back",color="midnightblue",fontsize="10",style="solid",fontname="Helvetica"];
  Node22 [label="client/state.c",height=0.2,width=0.4,color="black", fillcolor="white", style="filled",URL="$state_8c.html"];
  Node8 -> Node13 [dir="back",color="midnightblue",fontsize="10",style="solid",fontname="Helvetica"];
  Node8 -> Node18 [dir="back",color="midnightblue",fontsize="10",style="solid",fontname="Helvetica"];
  Node8 -> Node20 [dir="back",color="midnightblue",fontsize="10",style="solid",fontname="Helvetica"];
  Node8 -> Node23 [dir="back",color="midnightblue",fontsize="10",style="solid",fontname="Helvetica"];
  Node23 [label="common.c",height=0.2,width=0.4,color="black", fillcolor="white", style="filled",URL="$common_8c.html"];
  Node8 -> Node24 [dir="back",color="midnightblue",fontsize="10",style="solid",fontname="Helvetica"];
  Node24 [label="server/data.h",height=0.2,width=0.4,color="black", fillcolor="white", style="filled",URL="$data_8h.html"];
  Node24 -> Node25 [dir="back",color="midnightblue",fontsize="10",style="solid",fontname="Helvetica"];
  Node25 [label="server/access.h",height=0.2,width=0.4,color="black", fillcolor="white", style="filled",URL="$access_8h.html"];
  Node25 -> Node26 [dir="back",color="midnightblue",fontsize="10",style="solid",fontname="Helvetica"];
  Node26 [label="server/access.c",height=0.2,width=0.4,color="black", fillcolor="white", style="filled",URL="$access_8c.html"];
  Node25 -> Node27 [dir="back",color="midnightblue",fontsize="10",style="solid",fontname="Helvetica"];
  Node27 [label="server/create.c",height=0.2,width=0.4,color="black", fillcolor="white", style="filled",URL="$create_8c.html"];
  Node25 -> Node28 [dir="back",color="midnightblue",fontsize="10",style="solid",fontname="Helvetica"];
  Node28 [label="server/get.h",height=0.2,width=0.4,color="black", fillcolor="white", style="filled",URL="$get_8h.html"];
  Node28 -> Node29 [dir="back",color="midnightblue",fontsize="10",style="solid",fontname="Helvetica"];
  Node29 [label="server/get.c",height=0.2,width=0.4,color="black", fillcolor="white", style="filled",URL="$get_8c.html"];
  Node28 -> Node30 [dir="back",color="midnightblue",fontsize="10",style="solid",fontname="Helvetica"];
  Node30 [label="server/mainServer.c",height=0.2,width=0.4,color="black", fillcolor="white", style="filled",URL="$mainServer_8c.html"];
  Node25 -> Node30 [dir="back",color="midnightblue",fontsize="10",style="solid",fontname="Helvetica"];
  Node24 -> Node31 [dir="back",color="midnightblue",fontsize="10",style="solid",fontname="Helvetica"];
  Node31 [label="server/connect.h",height=0.2,width=0.4,color="black", fillcolor="white", style="filled",URL="$connect_8h.html"];
  Node31 -> Node32 [dir="back",color="midnightblue",fontsize="10",style="solid",fontname="Helvetica"];
  Node32 [label="server/connect.c",height=0.2,width=0.4,color="black", fillcolor="white", style="filled",URL="$connect_8c.html"];
  Node31 -> Node30 [dir="back",color="midnightblue",fontsize="10",style="solid",fontname="Helvetica"];
  Node24 -> Node33 [dir="back",color="midnightblue",fontsize="10",style="solid",fontname="Helvetica"];
  Node33 [label="server/create.h",height=0.2,width=0.4,color="black", fillcolor="white", style="filled",URL="$create_8h.html"];
  Node33 -> Node27 [dir="back",color="midnightblue",fontsize="10",style="solid",fontname="Helvetica"];
  Node33 -> Node30 [dir="back",color="midnightblue",fontsize="10",style="solid",fontname="Helvetica"];
  Node24 -> Node34 [dir="back",color="midnightblue",fontsize="10",style="solid",fontname="Helvetica"];
  Node34 [label="server/data.c",height=0.2,width=0.4,color="black", fillcolor="white", style="filled",URL="$data_8c.html"];
  Node24 -> Node35 [dir="back",color="midnightblue",fontsize="10",style="solid",fontname="Helvetica"];
  Node35 [label="server/delete.h",height=0.2,width=0.4,color="black", fillcolor="white", style="filled",URL="$delete_8h.html"];
  Node35 -> Node36 [dir="back",color="midnightblue",fontsize="10",style="solid",fontname="Helvetica"];
  Node36 [label="server/delete.c",height=0.2,width=0.4,color="black", fillcolor="white", style="filled",URL="$delete_8c.html"];
  Node35 -> Node30 [dir="back",color="midnightblue",fontsize="10",style="solid",fontname="Helvetica"];
  Node24 -> Node28 [dir="back",color="midnightblue",fontsize="10",style="solid",fontname="Helvetica"];
  Node24 -> Node37 [dir="back",color="midnightblue",fontsize="10",style="solid",fontname="Helvetica"];
  Node37 [label="server/update.h",height=0.2,width=0.4,color="black", fillcolor="white", style="filled",URL="$update_8h.html"];
  Node37 -> Node30 [dir="back",color="midnightblue",fontsize="10",style="solid",fontname="Helvetica"];
  Node37 -> Node38 [dir="back",color="midnightblue",fontsize="10",style="solid",fontname="Helvetica"];
  Node38 [label="server/update.c",height=0.2,width=0.4,color="black", fillcolor="white", style="filled",URL="$update_8c.html"];
  Node8 -> Node39 [dir="back",color="midnightblue",fontsize="10",style="solid",fontname="Helvetica"];
  Node39 [label="server/csvManager.h",height=0.2,width=0.4,color="black", fillcolor="white", style="filled",URL="$csvManager_8h.html"];
  Node39 -> Node24 [dir="back",color="midnightblue",fontsize="10",style="solid",fontname="Helvetica"];
  Node39 -> Node40 [dir="back",color="midnightblue",fontsize="10",style="solid",fontname="Helvetica"];
  Node40 [label="server/csvManager.c",height=0.2,width=0.4,color="black", fillcolor="white", style="filled",URL="$csvManager_8c.html"];
  Node39 -> Node30 [dir="back",color="midnightblue",fontsize="10",style="solid",fontname="Helvetica"];
  Node39 -> Node41 [dir="back",color="midnightblue",fontsize="10",style="solid",fontname="Helvetica"];
  Node41 [label="test/csv_test.c",height=0.2,width=0.4,color="black", fillcolor="white", style="filled",URL="$csv__test_8c.html"];
}
