digraph "server/create.h"
{
  edge [fontname="Helvetica",fontsize="10",labelfontname="Helvetica",labelfontsize="10"];
  node [fontname="Helvetica",fontsize="10",shape=record];
  Node11 [label="server/create.h",height=0.2,width=0.4,color="black", fillcolor="grey75", style="filled", fontcolor="black"];
  Node11 -> Node12 [dir="back",color="midnightblue",fontsize="10",style="solid",fontname="Helvetica"];
  Node12 [label="server/create.c",height=0.2,width=0.4,color="black", fillcolor="white", style="filled",URL="$create_8c.html"];
  Node11 -> Node13 [dir="back",color="midnightblue",fontsize="10",style="solid",fontname="Helvetica"];
  Node13 [label="server/mainServer.c",height=0.2,width=0.4,color="black", fillcolor="white", style="filled",URL="$mainServer_8c.html"];
}
