digraph "test" {
  compound=true
  node [ fontsize="10", fontname="Helvetica"];
  edge [ labelfontsize="10", labelfontname="Helvetica"];
  dir_13e138d54eb8818da29c3992edef070a [shape=box, label="test", style="filled", fillcolor="#eeeeff", pencolor="black", URL="dir_13e138d54eb8818da29c3992edef070a.html"];
  dir_41e1742e44e2de38b3bc91f993fed282 [shape=box label="server" URL="dir_41e1742e44e2de38b3bc91f993fed282.html"];
  dir_13e138d54eb8818da29c3992edef070a->dir_41e1742e44e2de38b3bc91f993fed282 [headlabel="1", labeldistance=1.5 headhref="dir_000002_000001.html"];
}
