digraph "server/serveur.h"
{
  edge [fontname="Helvetica",fontsize="10",labelfontname="Helvetica",labelfontsize="10"];
  node [fontname="Helvetica",fontsize="10",shape=record];
  Node2 [label="server/serveur.h",height=0.2,width=0.4,color="black", fillcolor="grey75", style="filled", fontcolor="black"];
  Node2 -> Node3 [dir="back",color="midnightblue",fontsize="10",style="solid",fontname="Helvetica"];
  Node3 [label="server/mainServer.c",height=0.2,width=0.4,color="black", fillcolor="white", style="filled",URL="$mainServer_8c.html"];
  Node2 -> Node4 [dir="back",color="midnightblue",fontsize="10",style="solid",fontname="Helvetica"];
  Node4 [label="server/serveur.c",height=0.2,width=0.4,color="black", fillcolor="white", style="filled",URL="$serveur_8c.html"];
}
