digraph "client/admin.c"
{
  edge [fontname="Helvetica",fontsize="10",labelfontname="Helvetica",labelfontsize="10"];
  node [fontname="Helvetica",fontsize="10",shape=record];
  Node0 [label="client/admin.c",height=0.2,width=0.4,color="black", fillcolor="grey75", style="filled", fontcolor="black"];
  Node0 -> Node1 [color="midnightblue",fontsize="10",style="solid"];
  Node1 [label="admin.h",height=0.2,width=0.4,color="black", fillcolor="white", style="filled",URL="$admin_8h.html"];
  Node1 -> Node2 [color="midnightblue",fontsize="10",style="solid"];
  Node2 [label="../common.h",height=0.2,width=0.4,color="black", fillcolor="white", style="filled",URL="$common_8h.html"];
  Node2 -> Node3 [color="midnightblue",fontsize="10",style="solid"];
  Node3 [label="stdio.h",height=0.2,width=0.4,color="grey75", fillcolor="white", style="filled"];
  Node2 -> Node4 [color="midnightblue",fontsize="10",style="solid"];
  Node4 [label="string.h",height=0.2,width=0.4,color="grey75", fillcolor="white", style="filled"];
  Node2 -> Node5 [color="midnightblue",fontsize="10",style="solid"];
  Node5 [label="signal.h",height=0.2,width=0.4,color="grey75", fillcolor="white", style="filled"];
  Node2 -> Node6 [color="midnightblue",fontsize="10",style="solid"];
  Node6 [label="unistd.h",height=0.2,width=0.4,color="grey75", fillcolor="white", style="filled"];
  Node2 -> Node7 [color="midnightblue",fontsize="10",style="solid"];
  Node7 [label="sys/types.h",height=0.2,width=0.4,color="grey75", fillcolor="white", style="filled"];
  Node2 -> Node8 [color="midnightblue",fontsize="10",style="solid"];
  Node8 [label="stdlib.h",height=0.2,width=0.4,color="grey75", fillcolor="white", style="filled"];
  Node2 -> Node9 [color="midnightblue",fontsize="10",style="solid"];
  Node9 [label="stdarg.h",height=0.2,width=0.4,color="grey75", fillcolor="white", style="filled"];
  Node1 -> Node10 [color="midnightblue",fontsize="10",style="solid"];
  Node10 [label="client.h",height=0.2,width=0.4,color="black", fillcolor="white", style="filled",URL="$client_8h.html"];
  Node1 -> Node11 [color="midnightblue",fontsize="10",style="solid"];
  Node11 [label="listSelect.h",height=0.2,width=0.4,color="black", fillcolor="white", style="filled",URL="$listSelect_8h.html"];
  Node11 -> Node2 [color="midnightblue",fontsize="10",style="solid"];
  Node11 -> Node12 [color="midnightblue",fontsize="10",style="solid"];
  Node12 [label="state.h",height=0.2,width=0.4,color="black", fillcolor="white", style="filled",URL="$state_8h.html"];
  Node12 -> Node2 [color="midnightblue",fontsize="10",style="solid"];
  Node12 -> Node13 [color="midnightblue",fontsize="10",style="solid"];
  Node13 [label="idList.h",height=0.2,width=0.4,color="black", fillcolor="white", style="filled",URL="$idList_8h.html"];
  Node13 -> Node8 [color="midnightblue",fontsize="10",style="solid"];
  Node13 -> Node14 [color="midnightblue",fontsize="10",style="solid"];
  Node14 [label="math.h",height=0.2,width=0.4,color="grey75", fillcolor="white", style="filled"];
  Node13 -> Node3 [color="midnightblue",fontsize="10",style="solid"];
  Node13 -> Node4 [color="midnightblue",fontsize="10",style="solid"];
  Node11 -> Node10 [color="midnightblue",fontsize="10",style="solid"];
  Node0 -> Node12 [color="midnightblue",fontsize="10",style="solid"];
  Node0 -> Node15 [color="midnightblue",fontsize="10",style="solid"];
  Node15 [label="setjmp.h",height=0.2,width=0.4,color="grey75", fillcolor="white", style="filled"];
}
