digraph "client/idList.h"
{
  edge [fontname="Helvetica",fontsize="10",labelfontname="Helvetica",labelfontsize="10"];
  node [fontname="Helvetica",fontsize="10",shape=record];
  Node5 [label="client/idList.h",height=0.2,width=0.4,color="black", fillcolor="grey75", style="filled", fontcolor="black"];
  Node5 -> Node6 [dir="back",color="midnightblue",fontsize="10",style="solid"];
  Node6 [label="client/state.h",height=0.2,width=0.4,color="black", fillcolor="white", style="filled",URL="$state_8h.html"];
  Node6 -> Node7 [dir="back",color="midnightblue",fontsize="10",style="solid"];
  Node7 [label="client/listSelect.h",height=0.2,width=0.4,color="black", fillcolor="white", style="filled",URL="$listSelect_8h.html"];
  Node7 -> Node8 [dir="back",color="midnightblue",fontsize="10",style="solid"];
  Node8 [label="client/admin.h",height=0.2,width=0.4,color="black", fillcolor="white", style="filled",URL="$admin_8h.html"];
  Node8 -> Node9 [dir="back",color="midnightblue",fontsize="10",style="solid"];
  Node9 [label="client/admin.c",height=0.2,width=0.4,color="black", fillcolor="white", style="filled",URL="$admin_8c.html"];
  Node8 -> Node10 [dir="back",color="midnightblue",fontsize="10",style="solid"];
  Node10 [label="client/mainClient.c",height=0.2,width=0.4,color="black", fillcolor="white", style="filled",URL="$mainClient_8c.html"];
  Node7 -> Node11 [dir="back",color="midnightblue",fontsize="10",style="solid"];
  Node11 [label="client/annuaire.h",height=0.2,width=0.4,color="black", fillcolor="white", style="filled",URL="$annuaire_8h.html"];
  Node11 -> Node12 [dir="back",color="midnightblue",fontsize="10",style="solid"];
  Node12 [label="client/annuaire.c",height=0.2,width=0.4,color="black", fillcolor="white", style="filled",URL="$annuaire_8c.html"];
  Node11 -> Node10 [dir="back",color="midnightblue",fontsize="10",style="solid"];
  Node7 -> Node13 [dir="back",color="midnightblue",fontsize="10",style="solid"];
  Node13 [label="client/listSelect.c",height=0.2,width=0.4,color="black", fillcolor="white", style="filled",URL="$listSelect_8c.html"];
  Node6 -> Node9 [dir="back",color="midnightblue",fontsize="10",style="solid"];
  Node6 -> Node11 [dir="back",color="midnightblue",fontsize="10",style="solid"];
  Node6 -> Node14 [dir="back",color="midnightblue",fontsize="10",style="solid"];
  Node14 [label="client/client.c",height=0.2,width=0.4,color="black", fillcolor="white", style="filled",URL="$client_8c.html"];
  Node6 -> Node15 [dir="back",color="midnightblue",fontsize="10",style="solid"];
  Node15 [label="client/connexion.h",height=0.2,width=0.4,color="black", fillcolor="white", style="filled",URL="$connexion_8h.html"];
  Node15 -> Node16 [dir="back",color="midnightblue",fontsize="10",style="solid"];
  Node16 [label="client/connexion.c",height=0.2,width=0.4,color="black", fillcolor="white", style="filled",URL="$connexion_8c.html"];
  Node15 -> Node10 [dir="back",color="midnightblue",fontsize="10",style="solid"];
  Node6 -> Node17 [dir="back",color="midnightblue",fontsize="10",style="solid"];
  Node17 [label="client/contact.h",height=0.2,width=0.4,color="black", fillcolor="white", style="filled",URL="$contact_8h.html"];
  Node17 -> Node18 [dir="back",color="midnightblue",fontsize="10",style="solid"];
  Node18 [label="client/contact.c",height=0.2,width=0.4,color="black", fillcolor="white", style="filled",URL="$contact_8c.html"];
  Node17 -> Node10 [dir="back",color="midnightblue",fontsize="10",style="solid"];
  Node6 -> Node10 [dir="back",color="midnightblue",fontsize="10",style="solid"];
  Node6 -> Node19 [dir="back",color="midnightblue",fontsize="10",style="solid"];
  Node19 [label="client/state.c",height=0.2,width=0.4,color="black", fillcolor="white", style="filled",URL="$state_8c.html"];
  Node5 -> Node20 [dir="back",color="midnightblue",fontsize="10",style="solid"];
  Node20 [label="client/idList.c",height=0.2,width=0.4,color="black", fillcolor="white", style="filled",URL="$idList_8c.html"];
  Node5 -> Node13 [dir="back",color="midnightblue",fontsize="10",style="solid"];
  Node5 -> Node10 [dir="back",color="midnightblue",fontsize="10",style="solid"];
}
