digraph "client/state.h"
{
  edge [fontname="Helvetica",fontsize="10",labelfontname="Helvetica",labelfontsize="10"];
  node [fontname="Helvetica",fontsize="10",shape=record];
  Node11 [label="client/state.h",height=0.2,width=0.4,color="black", fillcolor="grey75", style="filled", fontcolor="black"];
  Node11 -> Node12 [dir="back",color="midnightblue",fontsize="10",style="solid"];
  Node12 [label="client/listSelect.h",height=0.2,width=0.4,color="black", fillcolor="white", style="filled",URL="$listSelect_8h.html"];
  Node12 -> Node13 [dir="back",color="midnightblue",fontsize="10",style="solid"];
  Node13 [label="client/admin.h",height=0.2,width=0.4,color="black", fillcolor="white", style="filled",URL="$admin_8h.html"];
  Node13 -> Node14 [dir="back",color="midnightblue",fontsize="10",style="solid"];
  Node14 [label="client/admin.c",height=0.2,width=0.4,color="black", fillcolor="white", style="filled",URL="$admin_8c.html"];
  Node13 -> Node15 [dir="back",color="midnightblue",fontsize="10",style="solid"];
  Node15 [label="client/mainClient.c",height=0.2,width=0.4,color="black", fillcolor="white", style="filled",URL="$mainClient_8c.html"];
  Node12 -> Node16 [dir="back",color="midnightblue",fontsize="10",style="solid"];
  Node16 [label="client/annuaire.h",height=0.2,width=0.4,color="black", fillcolor="white", style="filled",URL="$annuaire_8h.html"];
  Node16 -> Node17 [dir="back",color="midnightblue",fontsize="10",style="solid"];
  Node17 [label="client/annuaire.c",height=0.2,width=0.4,color="black", fillcolor="white", style="filled",URL="$annuaire_8c.html"];
  Node16 -> Node15 [dir="back",color="midnightblue",fontsize="10",style="solid"];
  Node12 -> Node18 [dir="back",color="midnightblue",fontsize="10",style="solid"];
  Node18 [label="client/listSelect.c",height=0.2,width=0.4,color="black", fillcolor="white", style="filled",URL="$listSelect_8c.html"];
  Node11 -> Node14 [dir="back",color="midnightblue",fontsize="10",style="solid"];
  Node11 -> Node16 [dir="back",color="midnightblue",fontsize="10",style="solid"];
  Node11 -> Node19 [dir="back",color="midnightblue",fontsize="10",style="solid"];
  Node19 [label="client/client.c",height=0.2,width=0.4,color="black", fillcolor="white", style="filled",URL="$client_8c.html"];
  Node11 -> Node20 [dir="back",color="midnightblue",fontsize="10",style="solid"];
  Node20 [label="client/connexion.h",height=0.2,width=0.4,color="black", fillcolor="white", style="filled",URL="$connexion_8h.html"];
  Node20 -> Node21 [dir="back",color="midnightblue",fontsize="10",style="solid"];
  Node21 [label="client/connexion.c",height=0.2,width=0.4,color="black", fillcolor="white", style="filled",URL="$connexion_8c.html"];
  Node20 -> Node15 [dir="back",color="midnightblue",fontsize="10",style="solid"];
  Node11 -> Node22 [dir="back",color="midnightblue",fontsize="10",style="solid"];
  Node22 [label="client/contact.h",height=0.2,width=0.4,color="black", fillcolor="white", style="filled",URL="$contact_8h.html"];
  Node22 -> Node23 [dir="back",color="midnightblue",fontsize="10",style="solid"];
  Node23 [label="client/contact.c",height=0.2,width=0.4,color="black", fillcolor="white", style="filled",URL="$contact_8c.html"];
  Node22 -> Node15 [dir="back",color="midnightblue",fontsize="10",style="solid"];
  Node11 -> Node15 [dir="back",color="midnightblue",fontsize="10",style="solid"];
  Node11 -> Node24 [dir="back",color="midnightblue",fontsize="10",style="solid"];
  Node24 [label="client/state.c",height=0.2,width=0.4,color="black", fillcolor="white", style="filled",URL="$state_8c.html"];
}
